sample_id	hgvs	chrom	GENE	exone	strand	refseq	ABBERATION	NUMBER_OF_TARGETS	REGION_COV	AVG_TOTAL_COV	AVG_GENE_COV	NORMALIZED_TOTAL	NORMALIZED_GENE
R2328.2020	chr3:133466812-133466974	chr3	BFSP2	5	1	NM_003571	DUP	1	391.871	226.24457761315	301.071571428571	1.7320680306869098	1.30158752000592
R2328.2020	chr6:79947164-79947294	chr6	ELOVL4	1	-1	NM_022726	DEL	6	86.2748	226.24457761315	77.3186166666667	0.38133422206263495	1.1158347590716102
R2328.2020	chr6:79926178-79926396	chr6	ELOVL4	2	-1	NM_022726	DEL	6	96.8767	226.24457761315	77.3186166666667	0.42819457165354496	1.2529543876561
R2328.2020	chr6:79924936-79925047	chr6	ELOVL4	3	-1	NM_022726	DEL	6	55.9018	226.24457761315	77.3186166666667	0.247085700748086	0.7230056926781541
R2328.2020	chr6:79921609-79921811	chr6	ELOVL4	4	-1	NM_022726	DEL	6	80.5025	226.24457761315	77.3186166666667	0.3558206824194	1.04117874155793
R2328.2020	chr6:79919404-79919562	chr6	ELOVL4	5	-1	NM_022726	DEL	6	62.8868	226.24457761315	77.3186166666667	0.277959368854039	0.813346160487006
R2328.2020	chr6:79916592-79916898	chr6	ELOVL4	6	-1	NM_022726	DEL	6	81.4691	226.24457761315	77.3186166666667	0.36009305000583003	1.0536802585492
R2328.2020	chr1:212858437-212859205	chr1	FLVCR1	1	1	NM_014053	DUP	1	294.06	226.24457761315	194.7848	1.29974385729945	1.5096660519711997
R2328.2020	chr22:36775658-36775722	chr22	IFT27	1	-1	NM_006860	DUP	1	570.169	226.24457761315	356.267571428572	2.52014437656454	1.60039544916682
R2328.2020	chr6:79518689-79518909	chr6	LCA5	2	-1	NM_001122769	DEL	7	104.905	226.24457761315	100.372371428571	0.46367962099571003	1.04515812974145
R2328.2020	chr6:79513196-79513756	chr6	LCA5	3	-1	NM_001122769	DEL	7	106.693	226.24457761315	100.372371428571	0.471582572831565	1.06297179673519
R2328.2020	chr6:79493597-79493765	chr6	LCA5	4	-1	NM_001122769	DEL	7	97.6331	226.24457761315	100.372371428571	0.43153785619976404	0.9727089099362289
R2328.2020	chr6:79492535-79492662	chr6	LCA5	5	-1	NM_001122769	DEL	7	72.3438	226.24457761315	100.372371428571	0.319759265672651	0.7207541175958209
R2328.2020	chr6:79491572-79491745	chr6	LCA5	6	-1	NM_001122769	DEL	7	137.155	226.24457761315	100.372371428571	0.6062244737397321	1.3664616870948798
R2328.2020	chr6:79489068-79489231	chr6	LCA5	7	-1	NM_001122769	DEL	7	101.04899999999999	226.24457761315	100.372371428571	0.4466361186025021	1.00674118347308
R2328.2020	chr6:79486988-79487881	chr6	LCA5	8	-1	NM_001122769	DEL	7	82.8277	226.24457761315	100.372371428571	0.36609805580235794	0.825204175423345
R2328.2020	chr6:99607019-99607193	chr6	PRDM13	1	1	NM_021620	DEL	4	58.8686	226.24457761315	90.013825	0.260198943201449	0.653995094642406
R2328.2020	chr6:99608725-99608887	chr6	PRDM13	2	1	NM_021620	DEL	4	98.5767	226.24457761315	90.013825	0.435708563891214	1.09512844276976
R2328.2020	chr6:99609171-99609322	chr6	PRDM13	3	1	NM_021620	DEL	4	154.329	226.24457761315	90.013825	0.682133475321929	1.71450329990976
R2328.2020	chr6:99613017-99614774	chr6	PRDM13	4	1	NM_021620	DEL	4	48.281000000000006	226.24457761315	90.013825	0.213401799545244	0.536373162678066
R2328.2020	chr1:243256158-243256255	chr1	SDCCAG8	1	1	NM_006642	DUP	1	377.061	226.24457761315	230.351	1.6666078983105002	1.6368976040911498
R2328.2020	chr5:111092273-111092633	chr5	WDR36	1	1	NM_139281	DUP	1	394.881	226.24457761315	171.450673913043	1.7453722169430101	2.30317554890613
